[2021/12/06 13:46:41.053:.\machine_control.lua:64] DETECTED LOOP PROBLEM at: 	565318000.0	delta:	915000.0	
[2021/12/06 13:59:45.237:.\machine_control.lua:64] DETECTED LOOP PROBLEM at: 	1347761000.0	delta:	914000.0	
[2021/12/06 14:05:49.925:.\machine_control.lua:686] [2021/12/06 14:05:49.924] No heartbeats from robot
	@.\machine_control.lua,352: HandleHeartbeats
	@.\machine_control.lua,401: ProcessMessages
	@.\machine_control.lua,2303: MachineControlMain
	@c:/Users/matth/.vscode/extensions/dubonengineeringgmbh.actiongraph-0.3.4/actiongraph/cli.lua,186: n/a
	
[2021/12/06 14:05:49.926:.\machine_control.lua:686] [2021/12/06 14:05:49.926] .\machine_control.lua:779: Transport not opened
	@.\machine_control.lua,782: sendFunc
	@.\machine_control.lua,802: send_rpc
	@.\machine_control.lua,355: HandleHeartbeats
	@.\machine_control.lua,401: ProcessMessages
	@.\machine_control.lua,2303: MachineControlMain
	@c:/Users/matth/.vscode/extensions/dubonengineeringgmbh.actiongraph-0.3.4/actiongraph/cli.lua,186: n/a
	
[2021/12/06 22:43:55.892:.\machine_control.lua:686] [2021/12/06 22:43:55.892] No heartbeats from robot
	@.\machine_control.lua,352: HandleHeartbeats
	@.\machine_control.lua,401: ProcessMessages
	@.\machine_control.lua,2303: MachineControlMain
	@c:/Users/matth/.vscode/extensions/dubonengineeringgmbh.actiongraph-0.3.4/actiongraph/cli.lua,186: n/a
	
[2021/12/07 01:43:40.007:.\machine_control.lua:686] [2021/12/07 01:43:40.007] wait timout
	@.\machine_control.lua,699: waitFor
	@.\machine_control.lua,1083: UploadAndStart
	@.\machine_control.lua,2288: MachineControlMain
	@c:/Users/matth/.vscode/extensions/dubonengineeringgmbh.actiongraph-0.3.4/actiongraph/cli.lua,186: n/a
	
[2021/12/07 01:43:40.008:.\machine_control.lua:686] [2021/12/07 01:43:40.008] Action 'starter(ACTION 11 at @.\interpreter\legacy_translator.lua:308)' adding error: timeout
	@.\machine_control.lua,2288: MachineControlMain
	@c:/Users/matth/.vscode/extensions/dubonengineeringgmbh.actiongraph-0.3.4/actiongraph/cli.lua,186: n/a
	
[2021/12/07 01:43:40.009:.\machine_control.lua:686] [2021/12/07 01:43:40.009] Transport read failure: .\machine_control.lua:388: Transport not opened
	@.\machine_control.lua,2303: MachineControlMain
	@c:/Users/matth/.vscode/extensions/dubonengineeringgmbh.actiongraph-0.3.4/actiongraph/cli.lua,186: n/a
	
[2021/12/07 08:31:03.122:.\machine_control.lua:686] [2021/12/07 08:31:03.122] No heartbeats from robot
	@.\machine_control.lua,352: HandleHeartbeats
	@.\machine_control.lua,401: ProcessMessages
	@.\machine_control.lua,2303: MachineControlMain
	@c:/Users/matth/.vscode/extensions/dubonengineeringgmbh.actiongraph-0.3.4/actiongraph/cli.lua,186: n/a
	
[2021/12/07 08:31:03.321:.\machine_control.lua:686] [2021/12/07 08:31:03.321] .\machine_control.lua:779: Transport not opened
	@.\machine_control.lua,782: sendFunc
	@.\machine_control.lua,802: send_rpc
	@.\machine_control.lua,355: HandleHeartbeats
	@.\machine_control.lua,401: ProcessMessages
	@.\machine_control.lua,2303: MachineControlMain
	@c:/Users/matth/.vscode/extensions/dubonengineeringgmbh.actiongraph-0.3.4/actiongraph/cli.lua,186: n/a
	
[2021/12/20 12:09:26.757:.\machine_control.lua:64] DETECTED LOOP PROBLEM at: 	365366000.0	delta:	916000.0	
[2021/12/20 12:10:18.166:.\machine_control.lua:686] [2021/12/20 12:10:18.166] No heartbeats from robot
	@.\machine_control.lua,352: HandleHeartbeats
	@.\machine_control.lua,401: ProcessMessages
	@.\machine_control.lua,2303: MachineControlMain
	@c:/Users/matth/.vscode/extensions/dubonengineeringgmbh.actiongraph-0.3.4/actiongraph/cli.lua,186: n/a
	
[2021/12/20 12:10:18.169:.\machine_control.lua:686] [2021/12/20 12:10:18.169] .\machine_control.lua:779: Transport not opened
	@.\machine_control.lua,782: sendFunc
	@.\machine_control.lua,802: send_rpc
	@.\machine_control.lua,355: HandleHeartbeats
	@.\machine_control.lua,401: ProcessMessages
	@.\machine_control.lua,2303: MachineControlMain
	@c:/Users/matth/.vscode/extensions/dubonengineeringgmbh.actiongraph-0.3.4/actiongraph/cli.lua,186: n/a
	
[2021/12/20 12:10:46.772:.\machine_control.lua:64] DETECTED LOOP PROBLEM at: 	15088000.0	delta:	916000.0	
[2021/12/20 12:10:56.941:.\machine_control.lua:686] [2021/12/20 12:10:56.941] No heartbeats from robot
	@.\machine_control.lua,352: HandleHeartbeats
	@.\machine_control.lua,401: ProcessMessages
	@.\machine_control.lua,2303: MachineControlMain
	@c:/Users/matth/.vscode/extensions/dubonengineeringgmbh.actiongraph-0.3.4/actiongraph/cli.lua,186: n/a
	
[2021/12/20 12:10:56.943:.\machine_control.lua:686] [2021/12/20 12:10:56.943] .\machine_control.lua:779: Transport not opened
	@.\machine_control.lua,782: sendFunc
	@.\machine_control.lua,802: send_rpc
	@.\machine_control.lua,355: HandleHeartbeats
	@.\machine_control.lua,401: ProcessMessages
	@.\machine_control.lua,2303: MachineControlMain
	@c:/Users/matth/.vscode/extensions/dubonengineeringgmbh.actiongraph-0.3.4/actiongraph/cli.lua,186: n/a
	
[2021/12/20 12:12:19.474:.\machine_control.lua:686] [2021/12/20 12:12:19.474] No heartbeats from robot
	@.\machine_control.lua,352: HandleHeartbeats
	@.\machine_control.lua,401: ProcessMessages
	@.\machine_control.lua,694: waitFor
	@.\machine_control.lua,1052: UploadAndStart
	@.\machine_control.lua,2288: MachineControlMain
	@c:/Users/matth/.vscode/extensions/dubonengineeringgmbh.actiongraph-0.3.4/actiongraph/cli.lua,186: n/a
	
[2021/12/20 12:12:19.476:.\machine_control.lua:686] [2021/12/20 12:12:19.476] .\machine_control.lua:779: Transport not opened
	@.\machine_control.lua,782: sendFunc
	@.\machine_control.lua,802: send_rpc
	@.\machine_control.lua,355: HandleHeartbeats
	@.\machine_control.lua,401: ProcessMessages
	@.\machine_control.lua,694: waitFor
	@.\machine_control.lua,1052: UploadAndStart
	@.\machine_control.lua,2288: MachineControlMain
	@c:/Users/matth/.vscode/extensions/dubonengineeringgmbh.actiongraph-0.3.4/actiongraph/cli.lua,186: n/a
	
[2021/12/20 12:12:19.478:.\machine_control.lua:686] [2021/12/20 12:12:19.478] Transport read failure: .\machine_control.lua:388: Transport not opened
	@.\machine_control.lua,694: waitFor
	@.\machine_control.lua,1052: UploadAndStart
	@.\machine_control.lua,2288: MachineControlMain
	@c:/Users/matth/.vscode/extensions/dubonengineeringgmbh.actiongraph-0.3.4/actiongraph/cli.lua,186: n/a
	
[2021/12/20 12:12:19.478:.\machine_control.lua:686] [2021/12/20 12:12:19.478] ProcessMessages error
	@.\machine_control.lua,1052: UploadAndStart
	@.\machine_control.lua,2288: MachineControlMain
	@c:/Users/matth/.vscode/extensions/dubonengineeringgmbh.actiongraph-0.3.4/actiongraph/cli.lua,186: n/a
	
[2021/12/20 12:12:19.479:.\machine_control.lua:686] [2021/12/20 12:12:19.479] Hardware module set failed with error: timeout
	@.\machine_control.lua,2288: MachineControlMain
	@c:/Users/matth/.vscode/extensions/dubonengineeringgmbh.actiongraph-0.3.4/actiongraph/cli.lua,186: n/a
	
[2021/12/20 12:12:19.479:.\machine_control.lua:686] [2021/12/20 12:12:19.479] Transport read failure: .\machine_control.lua:388: Transport not opened
	@.\machine_control.lua,2303: MachineControlMain
	@c:/Users/matth/.vscode/extensions/dubonengineeringgmbh.actiongraph-0.3.4/actiongraph/cli.lua,186: n/a
	
[2021/12/28 17:20:10.369:.\machine_control.lua:686] [2021/12/28 17:20:10.369] No heartbeats from robot
	@.\machine_control.lua,352: HandleHeartbeats
	@.\machine_control.lua,401: ProcessMessages
	@.\machine_control.lua,2303: MachineControlMain
	@c:/Users/matth/.vscode/extensions/dubonengineeringgmbh.actiongraph-0.3.4/actiongraph/cli.lua,186: n/a
	
[2021/12/28 18:15:02.972:.\machine_control.lua:686] [2021/12/28 18:15:02.972] No heartbeats from robot
	@.\machine_control.lua,352: HandleHeartbeats
	@.\machine_control.lua,401: ProcessMessages
	@.\machine_control.lua,2303: MachineControlMain
	@c:/Users/matth/.vscode/extensions/dubonengineeringgmbh.actiongraph-0.3.4/actiongraph/cli.lua,186: n/a
	
[2021/12/28 18:15:02.974:.\machine_control.lua:686] [2021/12/28 18:15:02.974] .\machine_control.lua:779: Transport not opened
	@.\machine_control.lua,782: sendFunc
	@.\machine_control.lua,802: send_rpc
	@.\machine_control.lua,355: HandleHeartbeats
	@.\machine_control.lua,401: ProcessMessages
	@.\machine_control.lua,2303: MachineControlMain
	@c:/Users/matth/.vscode/extensions/dubonengineeringgmbh.actiongraph-0.3.4/actiongraph/cli.lua,186: n/a
	
[2021/12/28 22:07:02.579:.\machine_control.lua:686] [2021/12/28 22:07:02.579] No heartbeats from robot
	@.\machine_control.lua,352: HandleHeartbeats
	@.\machine_control.lua,401: ProcessMessages
	@.\machine_control.lua,2303: MachineControlMain
	@c:/Users/matth/.vscode/extensions/dubonengineeringgmbh.actiongraph-0.3.4/actiongraph/cli.lua,186: n/a
	
[2021/12/28 22:07:02.580:.\machine_control.lua:686] [2021/12/28 22:07:02.580] Transport read failure: .\machine_control.lua:388: Transport not opened
	@.\machine_control.lua,2303: MachineControlMain
	@c:/Users/matth/.vscode/extensions/dubonengineeringgmbh.actiongraph-0.3.4/actiongraph/cli.lua,186: n/a
	
[2021/12/28 22:34:33.525:.\machine_control.lua:686] [2021/12/28 22:34:33.525] No heartbeats from robot
	@.\machine_control.lua,352: HandleHeartbeats
	@.\machine_control.lua,401: ProcessMessages
	@.\machine_control.lua,2303: MachineControlMain
	@c:/Users/matth/.vscode/extensions/dubonengineeringgmbh.actiongraph-0.3.4/actiongraph/cli.lua,186: n/a
	
[2021/12/28 22:34:34.707:.\machine_control.lua:686] [2021/12/28 22:34:34.707] .\machine_control.lua:779: Transport not opened
	@.\machine_control.lua,782: sendFunc
	@.\machine_control.lua,802: send_rpc
	@.\machine_control.lua,355: HandleHeartbeats
	@.\machine_control.lua,401: ProcessMessages
	@.\machine_control.lua,2303: MachineControlMain
	@c:/Users/matth/.vscode/extensions/dubonengineeringgmbh.actiongraph-0.3.4/actiongraph/cli.lua,186: n/a
	
